A Peek Into the Life of E.T.?
…
Well, not quite.

Fireballs do seem much more focused on happening at night,
though!

Maybe a quick look at how long we have to notice these
manifestations…

## # A tibble: 29 × 3
##    UFO_shape count avg_duration_minutes
##    <chr>     <int>                <dbl>
##  1 light     16565                  220
##  2 triangle   7865                   28
##  3 circle     7607                   80
##  4 fireball   6208                   68
##  5 other      5649                  344
##  6 unknown    5584                   93
##  7 sphere     5387                  364
##  8 disk       5213                   25
##  9 oval       3733                   65
## 10 formation  2457                   21
## # ℹ 19 more rows
…
21 years?

Let’s shave off a lot of that excess percentile and see what we end
up with…

## # A tibble: 29 × 3
##    UFO_shape count avg_duration
##    <chr>     <int>        <dbl>
##  1 light     16430           14
##  2 triangle   7816           11
##  3 circle     7551           13
##  4 fireball   6193            7
##  5 other      5584           13
##  6 unknown    5519           14
##  7 sphere     5344           12
##  8 disk       5156           14
##  9 oval       3701           12
## 10 formation  2448           11
## # ℹ 19 more rows
…
